{
    "settings": {
        "i18n": {
            "el": {
              "SSN": "ΑΜΚΑ",
              "SSN should have 11 numeric characters.": "Ο αριθμός ΑΜΚΑ πρέπει να περιέχει 11 αριθμητικούς χαρακτήρες.",
              "Phone number must contain only digits (minimum 10 digits)": "Ο αριθμός τηλεφώνου πρέπει να περιέχει μόνο αριθμούς (τουλάχιστον 10 αριθμούς)",
              "Citizen Registrar Number": "Αριθμός δημοτολογίου",
              "Identity card number": "Αριθμός εγγράφου ταυτοποίησης",
              "Identity card type": "Τύπος εγγράφου ταυτοποίησης",
              "Identity card issuer": "Αρχή έκδοσης εγγράφου",
              "Include country code e.g +3069xxxxxxxx": "Συμπεριλάβετε και τον κωδικό της χώρας π.χ. +3069xxxxxxxx",
              "Social security number": "Αριθμός μητρώου κοινωνικής ασφάλισης (ΑΜΚΑ)"
            }
        }
    },
    "components": [
        {
            "components": [
                {
                    "legend": "Inscription Information",
                    "key": "fieldSet",
                    "type": "fieldset",
                    "input": false,
                    "label": "Inscription Information",
                    "components": [
                        {
                            "columns": [
                                {
                                    "components": [
                                        {
                                            "label": "Department",
                                            "labelPosition": "top",
                                            "dataSrc": "url",
                                            "data": {
                                                "url": "Departments?$top=-1&$select=id, name&$expand=locale",
                                                "headers": []
                                            },
                                            "dataType": "object",
                                            "idPath": "id",
                                            "key": "studyProgram.department",
                                            "template": "{{item.locale?.name || item.name}}",
                                            "type": "select",
                                            "input": true,
                                            "disabled": true
                                        }
                                    ],
                                    "width": 6,
                                    "offset": 0,
                                    "push": 0,
                                    "pull": 0
                                },
                                {
                                    "components": [
                                        {
                                            "label": "Inscription Year",
                                            "labelPosition": "top",
                                            "key": "studyProgramEnrollmentEvent.inscriptionYear.alternateName",
                                            "type": "textfield",
                                            "input": true,
                                            "disabled": true
                                        }
                                    ],
                                    "width": 6,
                                    "offset": 0,
                                    "push": 0,
                                    "pull": 0
                                }
                            ],
                            "customClass": "text-dark",
                            "hideLabel": true,
                            "type": "columns",
                            "input": false
                        }
                    ]
                },
                {
                    "legend": "School Information",
                    "key": "fieldSet",
                    "type": "fieldset",
                    "input": false,
                    "label": "School Information",
                    "hidden": true,
                    "components": [
                        {
                            "columns": [
                                {
                                    "components": [
                                        {
                                            "label": "School Graduated",
                                            "labelPosition": "top",
                                            "key": "schoolGraduated",
                                            "widget": {
                                                "type": "input"
                                            },
                                            "type": "textfield",
                                            "disabled": true,
                                            "input": true,
                                            "validate": {
                                                "required": false
                                            }
                                        }
                                    ],
                                    "width": 3,
                                    "offset": 0,
                                    "push": 0,
                                    "pull": 0
                                },
                                {
                                    "components": [
                                        {
                                            "label": "School Graduated Year",
                                            "labelPosition": "top",
                                            "key": "schoolGraduatedYear",
                                            "widget": {
                                                "type": "input"
                                            },
                                            "type": "textfield",
                                            "disabled": true,
                                            "input": true,
                                            "validate": {
                                                "required": false
                                            }
                                        }
                                    ],
                                    "width": 3,
                                    "offset": 0,
                                    "push": 0,
                                    "pull": 0
                                },
                                {
                                    "components": [
                                        {
                                            "label": "School Graduation Number",
                                            "labelPosition": "top",
                                            "key": "schoolGraduationNumber",
                                            "widget": {
                                                "type": "input"
                                            },
                                            "disabled": true,
                                            "type": "textfield",
                                            "input": true,
                                            "validate": {
                                                "required": false
                                            }
                                        }
                                    ],
                                    "width": 3,
                                    "offset": 0,
                                    "push": 0,
                                    "pull": 0
                                },
                                {
                                    "components": [
                                        {
                                            "label": "School Graduation Grade",
                                            "labelPosition": "top",
                                            "key": "schoolGraduationGrade",
                                            "widget": {
                                                "type": "input"
                                            },
                                            "disabled": true,
                                            "type": "number",
                                            "delimiter": true,
                                            "decimalLimit": 2,
                                            "input": true,
                                            "validate": {
                                                "required": false
                                            }
                                        }
                                    ],
                                    "width": 3,
                                    "offset": 0,
                                    "push": 0,
                                    "pull": 0
                                }
                            ],
                            "customClass": "text-dark",
                            "hideLabel": true,
                            "type": "columns",
                            "input": false
                        }
                    ]
                },
                {
                    "legend": "Student Information",
                    "key": "fieldset",
                    "type": "fieldset",
                    "input": false,
                    "components": [
                        {
                            "columns": [
                                {
                                    "components": [
                                        {
                                            "label": "Given Name",
                                            "key": "candidate.person.givenName",
                                            "labelPosition": "top",
                                            "widget": {
                                                "type": "input"
                                            },
                                            "validate": {
                                                "required": true
                                            },
                                            "type": "textfield",
                                            "input": true
                                        }
                                    ],
                                    "width": 3,
                                    "offset": 0,
                                    "push": 0,
                                    "pull": 0
                                },
                                {
                                    "components": [
                                        {
                                            "label": "Family Name",
                                            "labelPosition": "top",
                                            "widget": "choicesjs",
                                            "selectValues": "value",
                                            "type": "textfield",
                                            "key": "candidate.person.familyName",
                                            "input": true,
                                            "validate": {
                                                "required": true
                                            }
                                        }
                                    ],
                                    "width": 3,
                                    "offset": 0,
                                    "push": 0,
                                    "pull": 0
                                },
                                {
                                    "components": [
                                        {
                                            "label": "Father's Name",
                                            "labelPosition": "top",
                                            "widget": "choicesjs",
                                            "selectValues": "value",
                                            "type": "textfield",
                                            "input": true,
                                            "key": "candidate.person.fatherName",
                                            "validate": {
                                                "required": false
                                            }
                                        }
                                    ],
                                    "width": 3,
                                    "offset": 0,
                                    "push": 0,
                                    "pull": 0
                                },
                                {
                                    "components": [
                                        {
                                            "label": "Mother's Name",
                                            "labelPosition": "top",
                                            "key": "candidate.person.motherName",
                                            "widget": {
                                                "type": "input"
                                            },
                                            "type": "textfield",
                                            "input": true,
                                            "validate": {
                                                "required": false
                                            }
                                        }
                                    ],
                                    "width": 3,
                                    "offset": 0,
                                    "push": 0,
                                    "pull": 0
                                },
                                {
                                    "components": [
                                        {
                                            "label": "Gender",
                                            "labelPosition": "top",
                                            "dataSrc": "url",
                                            "data": {
                                                "url": "Genders?$filter=identifier ne null&$expand=locale",
                                                "headers": []
                                            },
                                            "template": "{{ item.locale?.name || item.name }}",
                                            "key": "candidate.person.gender",
                                            "type": "select",
                                            "input": true,
                                            "selectValues": "value",
                                            "valueProperty": "id",
                                            "widget": "choicesjs",
                                            "searchEnabled": false,
                                            "validate": {
                                                "required": true
                                            },
                                            "lazyLoad": true
                                        }
                                    ],
                                    "width": 3,
                                    "offset": 0,
                                    "push": 0,
                                    "pull": 0
                                },
                                {
                                    "components": [
                                        {
                                            "label": "Nationality",
                                            "labelPosition": "top",
                                            "dataSrc": "url",
                                            "data": {
                                                "url": "Nationalities?$top={{limit}}&$skip={{skip}}&$expand=locale",
                                                "headers": []
                                            },
                                            "limit": 200,
                                            "template": "{{ item.locale?.name || item.name }}",
                                            "key": "candidate.person.nationality",
                                            "type": "select",
                                            "input": true,
                                            "selectValues": "value",
                                            "valueProperty": "id",
                                            "widget": "choicesjs",
                                            "searchEnabled": true,
                                            "validate": {
                                                "required": true
                                            },
                                            "lazyLoad": true
                                        }
                                    ],
                                    "width": 3,
                                    "offset": 0,
                                    "push": 0,
                                    "pull": 0
                                }
                            ],
                            "customClass": "text-dark",
                            "hideLabel": true,
                            "type": "columns",
                            "input": false
                        }
                    ]
                },
                {
                    "legend": "Citizen Information",
                    "key": "fieldSet",
                    "type": "fieldset",
                    "input": false,
                    "label": "ID Information",
                    "components": [
                        {
                            "columns": [
                                {
                                    "components": [
                                        {
                                            "label": "Birth Date",
                                            "labelPosition": "top",
                                            "spellcheck": true,
                                            "widget": {
                                                "type": "input"
                                            },
                                            "validate": {
                                              "required": true
                                            },
                                            "key": "candidate.person.birthDate",
                                            "type": "datetime",
                                            "format": "dd/MM/yyyy",
                                            "input": true
                                        }
                                    ],
                                    "width": 3,
                                    "offset": 0,
                                    "push": 0,
                                    "pull": 0
                                },
                                {
                                    "components": [
                                      {
                                        "label": "Birth Place",
                                        "labelPosition": "top",
                                        "spellcheck": true,
                                        "key": "candidate.person.birthPlace",
                                        "type": "textfield",
                                        "input": true,
                                        "validate": {
                                          "required": true
                                        }
                                      }
                                    ],
                                    "width": 3,
                                    "offset": 0,
                                    "push": 0,
                                    "pull": 0
                                },
                                {
                                    "components": [
                                        {
                                            "label": "Birth Place Region",
                                            "labelPosition": "top",
                                            "key": "candidate.person.birthPlaceRegion",
                                            "dataSrc": "url",
                                            "data": {
                                                "url": "Regions?$top={{limit}}&$skip={{skip}}\"",
                                                "headers": []
                                            },
                                            "limit": 200,
                                            "template": "{{ item.name }}",
                                            "type": "select",
                                            "input": true,
                                            "selectValues": "value",
                                            "valueProperty": "id",
                                            "widget": "choicesjs",
                                            "searchEnabled": true,
                                            "validate": {
                                                "required": false
                                            },
                                            "lazyLoad": false
                                        }
                                    ],
                                    "width": 3,
                                    "offset": 0,
                                    "push": 0,
                                    "pull": 0
                                }
                            ],
                            "customClass": "text-dark",
                            "hideLabel": true,
                            "type": "columns",
                            "input": false
                        },
                        {
                            "columns": [

                                {
                                    "components": [
                                        {
                                            "type": "select",
                                            "label": "Identity card type",
                                            "key": "candidate.person.identityType",
                                            "input": true,
                                            "dataSrc": "url",
                                            "data": {
                                                "url": "IdentityTypes?$expand=locale",
                                                "headers": []
                                            },
                                            "template": "{{ item.locale?.name || item.name }}",
                                            "selectValues": "value",
                                            "validate": {
                                                "required": true
                                            },
                                            "valueProperty": "id",
                                            "searchEnabled": false,
                                            "lazyLoad": true
                                        }
                                    ],
                                    "width": 3,
                                    "offset": 0,
                                    "push": 0,
                                    "pull": 0
                                },
                              {
                                "components": [
                                  {
                                    "label": "Identity card number",
                                    "labelPosition": "top",
                                    "key": "candidate.person.identityCard",
                                    "widget": {
                                      "type": "input"
                                    },
                                    "type": "textfield",
                                    "input": true,
                                    "validate": {
                                      "required": true
                                    }
                                  }
                                ],
                                "width": 3,
                                "offset": 0,
                                "push": 0,
                                "pull": 0
                              },
                                {
                                    "components": [
                                      {
                                        "label": "Identity Date",
                                        "labelPosition": "top",
                                        "spellcheck": true,
                                        "widget": {
                                          "type": "input"
                                        },
                                        "key": "candidate.person.identityDate",
                                        "type": "datetime",
                                        "format": "dd/MM/yyyy",
                                        "input": true,
                                        "defaultValue": null,
                                        "validate": {
                                          "required": true
                                        }
                                      }
                                    ],
                                    "width": 3,
                                    "offset": 0,
                                    "push": 0,
                                    "pull": 0
                                },
                                {
                                    "components": [
                                        {
                                            "label": "Identity card issuer",
                                            "labelPosition": "top",
                                            "key": "candidate.person.identityAuthority",
                                            "widget": {
                                                "type": "input"
                                            },
                                            "type": "textfield",
                                            "input": true,
                                            "validate": {
                                                "required": false
                                            }
                                        }
                                    ],
                                    "width": 3,
                                    "offset": 0,
                                    "push": 0,
                                    "pull": 0
                                },
                                {
                                    "components": [
                                      {
                                        "label": "Citizen Registrar Number",
                                        "labelPosition": "top",
                                        "key": "candidate.person.citizenRegistrar",
                                        "widget": {
                                          "type": "input"
                                        },
                                        "type": "textfield",
                                        "input": true,
                                        "validate": {
                                          "required": false
                                        }
                                      }
                                    ],
                                    "width": 3,
                                    "offset": 0,
                                    "push": 0,
                                    "pull": 0
                                },
                                {
                                    "components": [
                                        {
                                            "label": "Citizen Registrar Place",
                                            "labelPosition": "top",
                                            "key": "candidate.person.citizenRegistrarPlace",
                                            "widget": {
                                                "type": "input"
                                            },
                                            "type": "textfield",
                                            "input": true,
                                            "validate": {
                                                "required": false
                                            }
                                        }
                                    ],
                                    "width": 3,
                                    "offset": 0,
                                    "push": 0,
                                    "pull": 0
                                },
                                {
                                    "components": [
                                        {
                                            "label": "Citizen Registrar Region",
                                            "labelPosition": "top",
                                            "dataSrc": "url",
                                            "data": {
                                                "url": "Regions?$top={{limit}}&$skip={{skip}}&$orderby=name",
                                                "headers": []
                                            },
                                            "limit": 200,
                                            "template": "{{ item.name }}",
                                            "key": "candidate.person.citizenRegistrarRegion",
                                            "type": "select",
                                            "input": true,
                                            "selectValues": "value",
                                            "valueProperty": "id",
                                            "widget": "choicesjs",
                                            "searchEnabled": true,
                                            "validate": {
                                                "required": false
                                            },
                                            "lazyLoad": false
                                        }
                                    ],
                                    "width": 3,
                                    "offset": 0,
                                    "push": 0,
                                    "pull": 0
                                }
                            ],
                            "customClass": "text-dark",
                            "hideLabel": true,
                            "type": "columns",
                            "input": false
                        },
                        {
                            "columns": [
                              {
                                "components": [
                                  {
                                    "label": "Social security number",
                                    "labelPosition": "top",
                                    "key": "candidate.person.SSN",
                                    "widget": {
                                      "type": "input"
                                    },
                                    "type": "textfield",
                                    "input": true,
                                    "validate": {
                                      "pattern": "[0-9]{11}",
                                      "required": false,
                                      "customMessage": "SSN should have 11 numeric characters."
                                    }
                                  }
                                ],
                                "width": 3,
                                "offset": 0,
                                "push": 0,
                                "pull": 0
                              },
                                {
                                    "components": [
                                        {
                                            "label": "Vat Number",
                                          "hidden": true,
                                            "labelPosition": "top",
                                            "key": "candidate.person.vatNumber",
                                            "widget": {
                                                "type": "input"
                                            },
                                            "type": "textfield",
                                            "input": true,
                                            "validate": {
                                                "required": false
                                            }
                                        }
                                    ],
                                    "width": 3,
                                    "offset": 0,
                                    "push": 0,
                                    "pull": 0
                                },
                                {
                                    "components": [
                                        {
                                            "label": "Vat Office",
                                          "hidden": true,
                                            "labelPosition": "top",
                                            "key": "candidate.person.vatOffice",
                                            "widget": {
                                                "type": "input"
                                            },
                                            "type": "textfield",
                                            "input": true,
                                            "validate": {
                                                "required": false
                                            }
                                        }
                                    ],
                                    "width": 3,
                                    "offset": 0,
                                    "push": 0,
                                    "pull": 0
                                }

                            ],
                            "customClass": "text-dark",
                            "hideLabel": true,
                            "type": "columns",
                            "input": false
                        }
                    ]
                },
                {
                    "legend": "Home Contact Details",
                    "key": "fieldSet",
                    "type": "fieldset",
                    "input": false,
                    "label": "Home Contact Details",
                    "components": [
                        {
                            "columns": [
                                {
                                    "components": [
                                        {
                                            "label": "Address",
                                            "labelPosition": "top",
                                            "widget": {
                                                "type": "input"
                                            },
                                            "validate": {
                                                "required": false
                                            },
                                            "key": "candidate.person.homeAddress",
                                            "type": "textfield",
                                            "input": true
                                        }
                                    ],
                                    "width": 3,
                                    "offset": 0,
                                    "push": 0,
                                    "pull": 0
                                },
                                {
                                    "components": [
                                        {
                                            "label": "Postal Code",
                                            "labelPosition": "top",
                                            "widget": {
                                                "type": "input"
                                            },
                                            "validate": {
                                                "required": false
                                            },
                                            "key": "candidate.person.homePostalCode",
                                            "type": "textfield",
                                            "input": true
                                        }
                                    ],
                                    "width": 3,
                                    "offset": 0,
                                    "push": 0,
                                    "pull": 0
                                },
                                {
                                    "components": [
                                        {
                                            "label": "City",
                                            "labelPosition": "top",
                                            "widget": {
                                                "type": "input"
                                            },
                                            "validate": {
                                                "required": false
                                            },
                                            "key": "candidate.person.homeCity",
                                            "type": "textfield",
                                            "input": true
                                        }
                                    ],
                                    "width": 3,
                                    "offset": 0,
                                    "push": 0,
                                    "pull": 0
                                },
                                {
                                    "components": [
                                        {
                                            "label": "Region",
                                            "labelPosition": "top",
                                            "dataSrc": "url",
                                            "data": {
                                                "url": "Regions?$top={{limit}}&$skip={{skip}}&$orderby=name",
                                                "headers": []
                                            },
                                            "limit": 200,
                                            "template": "{{ item.name }}",
                                            "key": "candidate.person.homeAddressRegion",
                                            "type": "select",
                                            "input": true,
                                            "selectValues": "value",
                                            "valueProperty": "id",
                                            "widget": "choicesjs",
                                            "searchEnabled": true,
                                            "validate": {
                                                "required": false
                                            },
                                            "lazyLoad": true
                                        }
                                    ],
                                    "width": 3,
                                    "offset": 0,
                                    "push": 0,
                                    "pull": 0
                                },
                                {
                                    "components": [
                                        {
                                            "label": "Country",
                                            "labelPosition": "top",
                                            "dataSrc": "url",
                                            "data": {
                                                "url": "Countries?$top={{limit}}&$skip={{skip}}&$expand=locale",
                                                "headers": []
                                            },
                                            "limit": 200,
                                            "template": "{{ item.locale?.name || item.name }}",
                                            "selectValues": "value",
                                            "widget": {
                                                "type": "input"
                                            },
                                            "key": "candidate.person.homeCountry",
                                            "valueProperty": "name",
                                            "type": "select",
                                            "input": true,
                                            "lazyLoad": true
                                        }
                                    ],
                                    "width": 3,
                                    "offset": 0,
                                    "push": 0,
                                    "pull": 0
                                },
                                {
                                    "components": [
                                      {
                                        "label": "Phone",
                                        "labelPosition": "top",
                                        "type": "textfield",
                                        "spellcheck": true,
                                        "widget": {
                                          "type": "input"
                                        },
                                        "validate": {
                                          "pattern": "^[0-9]*$",
                                          "customMessage": "Phone number must contain only digits (minimum 10 digits)",
                                          "minLength": 10,
                                          "maxLength": 20
                                        },
                                        "key": "candidate.person.homePhone",
                                        "input": true
                                      }
                                    ],
                                    "width": 3,
                                    "offset": 0,
                                    "push": 0,
                                    "pull": 0
                                },
                                {
                                    "components": [
                                      {
                                        "label": "Mobile Phone",
                                        "type": "textfield",
                                        "labelPosition": "top",
                                        "validate": {
                                          "pattern": "^\\+[0-9]*$",
                                          "customMessage": "Phone number must contain only digits (minimum 10 digits)",
                                          "minLength": 10,
                                          "maxLength": 20,
                                          "required": true
                                        },
                                        "input": true,
                                        "key": "candidate.person.mobilePhone",
                                        "widget": "choicesjs",
                                        "description": "Include country code e.g +3069xxxxxxxx"
                                      }
                                    ],
                                    "width": 3,
                                    "offset": 0,
                                    "push": 0,
                                    "pull": 0
                                },
                                {
                                    "components": [
                                        {
                                            "label": "Email",
                                            "labelPosition": "top",
                                            "type": "email",
                                            "input": true,
                                            "selectValues": "value",
                                            "key": "candidate.person.email",
                                            "widget": "choicesjs",
                                          "validate": {
                                            "required": true
                                          }
                                        }
                                    ],
                                    "width": 3,
                                    "offset": 0,
                                    "push": 0,
                                    "pull": 0
                                }
                            ],
                            "customClass": "text-dark",
                            "hideLabel": true,
                            "type": "columns",
                            "input": false
                        }
                    ]
                },
                {
                    "legend": "Temporary Contact Details",
                    "key": "fieldSet",
                    "type": "fieldset",
                    "input": false,
                    "label": "Temporary Contact Details",
                    "components": [
                        {
                            "columns": [
                                {
                                    "components": [
                                        {
                                            "label": "Address",
                                            "labelPosition": "top",
                                            "widget": {
                                                "type": "input"
                                            },
                                            "validate": {
                                                "required": false
                                            },
                                            "key": "candidate.person.temporaryAddress",
                                            "type": "textfield",
                                            "input": true
                                        }
                                    ],
                                    "width": 3,
                                    "offset": 0,
                                    "push": 0,
                                    "pull": 0
                                },
                                {
                                    "components": [
                                        {
                                            "label": "Postal Code",
                                            "labelPosition": "top",
                                            "widget": {
                                                "type": "input"
                                            },
                                            "validate": {
                                                "required": false
                                            },
                                            "key": "candidate.person.temporaryPostalCode",
                                            "type": "textfield",
                                            "input": true
                                        }
                                    ],
                                    "width": 3,
                                    "offset": 0,
                                    "push": 0,
                                    "pull": 0
                                },
                                {
                                    "components": [
                                        {
                                            "label": "City",
                                            "labelPosition": "top",
                                            "widget": {
                                                "type": "input"
                                            },
                                            "validate": {
                                                "required": false
                                            },
                                            "key": "candidate.person.temporaryCity",
                                            "type": "textfield",
                                            "input": true
                                        }
                                    ],
                                    "width": 3,
                                    "offset": 0,
                                    "push": 0,
                                    "pull": 0
                                },
                                {
                                    "components": [
                                        {
                                            "label": "Region",
                                            "labelPosition": "top",
                                            "dataSrc": "url",
                                            "data": {
                                                "url": "Regions?$top={{limit}}&$skip={{skip}}&$orderby=name",
                                                "headers": []
                                            },
                                            "limit": 200,
                                            "template": "{{ item.name }}",
                                            "key": "candidate.person.temporaryAddressRegion",
                                            "type": "select",
                                            "input": true,
                                            "selectValues": "value",
                                            "valueProperty": "id",
                                            "widget": "choicesjs",
                                            "searchEnabled": true,
                                            "validate": {
                                                "required": false
                                            },
                                            "lazyLoad": false
                                        }
                                    ],
                                    "width": 3,
                                    "offset": 0,
                                    "push": 0,
                                    "pull": 0
                                },
                                {
                                    "components": [
                                        {
                                            "label": "Country",
                                            "labelPosition": "top",
                                            "dataSrc": "url",
                                            "data": {
                                                "url": "Countries?$top={{limit}}&$skip={{skip}}&$expand=locale",
                                                "headers": []
                                            },
                                            "limit": 200,
                                            "template": "{{ item.locale?.name || item.name }}",
                                            "selectValues": "value",
                                            "widget": {
                                                "type": "input"
                                            },
                                            "key": "candidate.person.temporaryCountry",
                                            "valueProperty": "name",
                                            "type": "select",
                                            "lazyLoad": true,
                                            "input": true
                                        }
                                    ],
                                    "width": 3,
                                    "offset": 0,
                                    "push": 0,
                                    "pull": 0
                                },
                                {
                                    "components": [
                                      {
                                        "label": "Phone",
                                        "type": "textfield",
                                        "labelPosition": "top",
                                        "spellcheck": true,
                                        "widget": {
                                          "type": "input"
                                        },
                                        "key": "candidate.person.temporaryPhone",
                                        "validate": {
                                          "pattern": "^[0-9]*$",
                                          "customMessage": "Phone number must contain only digits (minimum 10 digits)",
                                          "minLength": 10,
                                          "maxLength": 20
                                        },
                                        "input": true
                                      }
                                    ],
                                    "width": 3,
                                    "offset": 0,
                                    "push": 0,
                                    "pull": 0
                                }
                            ],
                            "customClass": "text-dark",
                            "hideLabel": true,
                            "type": "columns",
                            "input": false
                        }
                    ]
                }
            ]
        }
    ]
}
